<svg width="60" height="60" viewBox="0 0 60 60" fill="none" xmlns="http://www.w3.org/2000/svg">
<path d="M58.0631 29.9925C58.0828 29.3241 58.2591 19.77 52.605 13.5506C52.3538 12.9947 51.1622 10.7541 47.3166 8.01563C45.6117 6.69319 43.8009 5.51328 41.9025 4.48781L41.895 4.48406C41.655 4.35563 36.9656 1.875 31.2741 1.875C30.8419 1.875 30.4144 1.90031 29.9916 1.92938V1.92187C25.6519 1.82719 21.3413 2.94375 18.7435 4.11656C16.4391 5.15719 13.8806 6.90188 13.696 7.03688C10.5047 8.82188 4.45314 15.9853 3.97408 19.7813C2.04001 22.2534 0.423763 33.3581 3.97783 40.1222C6.4697 49.5225 15.8503 54.2269 16.5966 54.5878C17.0503 54.8775 22.1625 58.0378 28.4428 58.0378C28.7063 58.0378 30.2991 58.1259 30.8672 58.1259C37.6556 58.1259 47.715 53.3409 49.8206 49.5928C55.606 45.3609 58.605 34.455 58.0631 29.9925ZM16.6481 44.1141C13.9585 39.7631 12.4256 34.0781 12.0975 32.7722C12.9488 31.4963 17.1478 25.305 19.5403 23.4422C20.895 23.6916 26.5519 24.7303 31.8872 25.6959C32.5575 27.4331 35.4985 35.0981 36.3403 38.0569C35.4122 39.1575 31.7663 43.4025 28.1766 46.7269C24.3656 46.7447 17.8838 44.5463 16.6481 44.1141ZM50.46 13.6688C50.4488 14.0906 50.3485 15.5906 49.6303 17.3128C48.2044 16.5844 44.6203 15.0244 39.7078 14.7609C38.9644 13.6631 36.1669 9.83531 31.7485 7.18031C32.3531 5.99719 33.195 4.55438 33.6872 4.11469C33.8466 4.06969 34.0941 4.02844 34.471 4.02844C36.84 4.02844 40.9331 5.58 41.2894 5.71781C41.6672 5.9175 49.0247 9.87938 50.46 13.6688ZM11.0372 31.8863C7.82814 31.3388 5.92033 30.3413 5.35033 30.0038C4.15689 25.6753 5.11783 20.9972 5.26595 20.3269C6.44345 18.2213 9.79595 12.8541 12.0075 11.835C14.2997 11.3672 17.1581 11.9484 18.3225 12.2325C18.2128 13.7466 18.0019 17.9766 18.6281 22.4156C16.0913 24.4575 12.076 30.3347 11.0372 31.8863V31.8863ZM29.7047 3.30938C30.4247 3.36281 31.4813 3.52031 32.205 3.735C31.4831 4.695 30.7435 6.11813 30.3938 6.82125C28.9219 7.06219 23.3316 8.13094 18.946 10.9744C18.0619 10.74 15.3919 10.1147 12.8635 10.3303C13.4897 9.11813 14.4253 8.22188 14.5256 8.13C14.8735 7.88063 21.5691 3.19594 29.7047 3.29719V3.30938V3.30938ZM47.6072 39.0216C46.5103 38.9766 42.2841 38.7356 37.65 37.6472C36.7622 34.5516 33.8306 26.9184 33.1603 25.1822C35.2931 22.1423 37.4582 19.1252 39.6553 16.1316C44.9878 16.4241 48.7322 18.3694 49.4569 18.7753C52.546 23.7431 53.2238 28.8169 53.3166 29.6644C51.676 34.77 48.4313 38.2078 47.6072 39.0216V39.0216ZM3.42658 26.7366C3.50533 27.9234 3.69564 29.1731 4.0397 30.4088C3.73038 31.2094 3.51579 32.0435 3.40033 32.8941C3.20453 30.8458 3.21333 28.7831 3.42658 26.7366V26.7366ZM12.4678 48.6356C13.8816 47.2734 15.6244 45.9478 16.3003 45.4472C17.8285 45.9853 24.1041 48.1069 28.1044 48.1069C28.786 49.0209 31.0144 51.8831 33.7463 54.0713C32.0456 55.7353 29.5894 56.5209 29.1553 56.6513C21.5363 56.8556 14.116 52.5731 12.4678 48.6356V48.6356ZM32.5894 56.64C33.4538 56.1366 34.3547 55.4738 35.1 54.6347C36.316 54.4669 41.5341 53.5688 46.2497 50.1047C46.561 50.1384 47.0738 50.1797 47.6466 50.1638C44.8172 52.9359 37.9135 56.0325 32.5894 56.64ZM47.0494 48.7875C48.7435 44.3738 48.6713 41.0456 48.5878 39.9825C49.5178 39.0713 52.7091 35.6709 54.48 30.5016C55.4344 30.6609 56.055 30.9038 56.3494 31.0397C56.4516 31.4147 56.6222 32.2809 56.5256 33.5944C55.8038 38.3222 53.3119 45.4069 48.9469 48.5391C48.5081 48.7631 47.7356 48.8119 47.0494 48.7875" fill="#0BCAD4"/>
</svg>
